<svg
  xmlns="http://www.w3.org/2000/svg" width="16" height="16" viewBox="0 0 16 16" fill="none">
  <path d="M12.667 8L3.33366 8M12.667 8L8.66699 12M12.667 8L8.66699 4" stroke="#08A8F1" stroke-width="1.33333"
        stroke-linecap="round" stroke-linejoin="round"/>
</svg>
